…
Filter the gapminder to be asia only

``` r
asia_gapminder <- gapminder %>% 
  filter(continent == "Asia")
asia_gapminder
```

    ## # A tibble: 396 x 6
    ##    country     continent  year lifeExp      pop gdpPercap
    ##    <fct>       <fct>     <int>   <dbl>    <int>     <dbl>
    ##  1 Afghanistan Asia       1952    28.8  8425333      779.
    ##  2 Afghanistan Asia       1957    30.3  9240934      821.
    ##  3 Afghanistan Asia       1962    32.0 10267083      853.
    ##  4 Afghanistan Asia       1967    34.0 11537966      836.
    ##  5 Afghanistan Asia       1972    36.1 13079460      740.
    ##  6 Afghanistan Asia       1977    38.4 14880372      786.
    ##  7 Afghanistan Asia       1982    39.9 12881816      978.
    ##  8 Afghanistan Asia       1987    40.8 13867957      852.
    ##  9 Afghanistan Asia       1992    41.7 16317921      649.
    ## 10 Afghanistan Asia       1997    41.8 22227415      635.
    ## # ... with 386 more rows
…
Now it has the same content as `left_join(asia_gapminder, asia_info)`
but column order
    switched.

`inner_join()`:

``` r
inner_join(asia_gapminder, asia_info, by = "country")
```

    ## Warning: Column `country` joining factors with different levels, coercing
    ## to character vector

    ## # A tibble: 60 x 8
    ##    country continent  year lifeExp        pop gdpPercap language capital
    ##    <chr>   <fct>     <int>   <dbl>      <int>     <dbl> <fct>    <fct>  
    ##  1 China   Asia       1952    44    556263527      400. Mandarin Beijing
    ##  2 China   Asia       1957    50.5  637408000      576. Mandarin Beijing
    ##  3 China   Asia       1962    44.5  665770000      488. Mandarin Beijing
    ##  4 China   Asia       1967    58.4  754550000      613. Mandarin Beijing
    ##  5 China   Asia       1972    63.1  862030000      677. Mandarin Beijing
    ##  6 China   Asia       1977    64.0  943455000      741. Mandarin Beijing
    ##  7 China   Asia       1982    65.5 1000281000      962. Mandarin Beijing
    ##  8 China   Asia       1987    67.3 1084035000     1379. Mandarin Beijing
    ##  9 China   Asia       1992    68.7 1164970000     1656. Mandarin Beijing
    ## 10 China   Asia       1997    70.4 1230075000     2289. Mandarin Beijing
    ## # ... with 50 more rows
…
